%YAML 1.1
%TAG !u! tag:unity3d.com,2011:
--- !u!29 &1
OcclusionCullingSettings:
  m_ObjectHideFlags: 0
  serializedVersion: 2
  m_OcclusionBakeSettings:
    smallestOccluder: 5
    smallestHole: 0.25
    backfaceThreshold: 100
  m_SceneGUID: 00000000000000000000000000000000
  m_OcclusionCullingData: {fileID: 0}
--- !u!104 &2
RenderSettings:
  m_ObjectHideFlags: 0
  serializedVersion: 9
  m_Fog: 0
  m_FogColor: {r: 0.5, g: 0.5, b: 0.5, a: 1}
  m_FogMode: 3
  m_FogDensity: 0.01
  m_LinearFogStart: 0
  m_LinearFogEnd: 300
  m_AmbientSkyColor: {r: 0.212, g: 0.227, b: 0.259, a: 1}
  m_AmbientEquatorColor: {r: 0.114, g: 0.125, b: 0.133, a: 1}
  m_AmbientGroundColor: {r: 0.047, g: 0.043, b: 0.035, a: 1}
  m_AmbientIntensity: 1
  m_AmbientMode: 3
  m_SubtractiveShadowColor: {r: 0.42, g: 0.478, b: 0.627, a: 1}
  m_SkyboxMaterial: {fileID: 0}
  m_HaloStrength: 0.5
  m_FlareStrength: 1
  m_FlareFadeSpeed: 3
  m_HaloTexture: {fileID: 0}
  m_SpotCookie: {fileID: 10001, guid: 0000000000000000e000000000000000, type: 0}
  m_DefaultReflectionMode: 0
  m_DefaultReflectionResolution: 128
  m_ReflectionBounces: 1
  m_ReflectionIntensity: 1
  m_CustomReflection: {fileID: 0}
  m_Sun: {fileID: 0}
  m_IndirectSpecularColor: {r: 0, g: 0, b: 0, a: 1}
  m_UseRadianceAmbientProbe: 0
--- !u!157 &3
LightmapSettings:
  m_ObjectHideFlags: 0
  serializedVersion: 12
  m_GIWorkflowMode: 1
  m_GISettings:
    serializedVersion: 2
    m_BounceScale: 1
    m_IndirectOutputScale: 1
    m_AlbedoBoost: 1
    m_EnvironmentLightingMode: 0
    m_EnableBakedLightmaps: 0
    m_EnableRealtimeLightmaps: 0
  m_LightmapEditorSettings:
    serializedVersion: 12
    m_Resolution: 2
    m_BakeResolution: 40
    m_AtlasSize: 1024
    m_AO: 0
    m_AOMaxDistance: 1
    m_CompAOExponent: 1
    m_CompAOExponentDirect: 0
    m_ExtractAmbientOcclusion: 0
    m_Padding: 2
    m_LightmapParameters: {fileID: 0}
    m_LightmapsBakeMode: 1
    m_TextureCompression: 1
    m_FinalGather: 0
    m_FinalGatherFiltering: 1
    m_FinalGatherRayCount: 256
    m_ReflectionCompression: 2
    m_MixedBakeMode: 2
    m_BakeBackend: 0
    m_PVRSampling: 1
    m_PVRDirectSampleCount: 32
    m_PVRSampleCount: 500
    m_PVRBounces: 2
    m_PVREnvironmentSampleCount: 500
    m_PVREnvironmentReferencePointCount: 2048
    m_PVRFilteringMode: 2
    m_PVRDenoiserTypeDirect: 0
    m_PVRDenoiserTypeIndirect: 0
    m_PVRDenoiserTypeAO: 0
    m_PVRFilterTypeDirect: 0
    m_PVRFilterTypeIndirect: 0
    m_PVRFilterTypeAO: 0
    m_PVREnvironmentMIS: 0
    m_PVRCulling: 1
    m_PVRFilteringGaussRadiusDirect: 1
    m_PVRFilteringGaussRadiusIndirect: 5
    m_PVRFilteringGaussRadiusAO: 2
    m_PVRFilteringAtrousPositionSigmaDirect: 0.5
    m_PVRFilteringAtrousPositionSigmaIndirect: 2
    m_PVRFilteringAtrousPositionSigmaAO: 1
    m_ExportTrainingData: 0
    m_TrainingDataDestination: TrainingData
    m_LightProbeSampleCountMultiplier: 4
  m_LightingDataAsset: {fileID: 0}
  m_LightingSettings: {fileID: 0}
--- !u!196 &4
NavMeshSettings:
  serializedVersion: 2
  m_ObjectHideFlags: 0
  m_BuildSettings:
    serializedVersion: 2
    agentTypeID: 0
    agentRadius: 0.5
    agentHeight: 2
    agentSlope: 45
    agentClimb: 0.4
    ledgeDropHeight: 0
    maxJumpAcrossDistance: 0
    minRegionArea: 2
    manualCellSize: 0
    cellSize: 0.16666667
    manualTileSize: 0
    tileSize: 256
    accuratePlacement: 0
    maxJobWorkers: 0
    preserveTilesOutsideBounds: 0
    debug:
      m_Flags: 0
  m_NavMeshData: {fileID: 0}
--- !u!224 &91339427 stripped
RectTransform:
  m_CorrespondingSourceObject: {fileID: 7366166440422423899, guid: 9af34b7f964a0e846b0819f5711c3c28, type: 3}
  m_PrefabInstance: {fileID: 7366166440337573880}
  m_PrefabAsset: {fileID: 0}
--- !u!1 &377552669
GameObject:
  m_ObjectHideFlags: 0
  m_CorrespondingSourceObject: {fileID: 0}
  m_PrefabInstance: {fileID: 0}
  m_PrefabAsset: {fileID: 0}
  serializedVersion: 6
  m_Component:
  - component: {fileID: 377552673}
  - component: {fileID: 377552672}
  - component: {fileID: 377552671}
  - component: {fileID: 377552670}
  m_Layer: 5
  m_Name: Canvas
  m_TagString: Untagged
  m_Icon: {fileID: 0}
  m_NavMeshLayer: 0
  m_StaticEditorFlags: 0
  m_IsActive: 1
--- !u!114 &377552670
MonoBehaviour:
  m_ObjectHideFlags: 0
  m_CorrespondingSourceObject: {fileID: 0}
  m_PrefabInstance: {fileID: 0}
  m_PrefabAsset: {fileID: 0}
  m_GameObject: {fileID: 377552669}
  m_Enabled: 1
  m_EditorHideFlags: 0
  m_Script: {fileID: 11500000, guid: dc42784cf147c0c48a680349fa168899, type: 3}
  m_Name: 
  m_EditorClassIdentifier: 
  m_IgnoreReversedGraphics: 1
  m_BlockingObjects: 0
  m_BlockingMask:
    serializedVersion: 2
    m_Bits: 4294967295
--- !u!114 &377552671
MonoBehaviour:
  m_ObjectHideFlags: 0
  m_CorrespondingSourceObject: {fileID: 0}
  m_PrefabInstance: {fileID: 0}
  m_PrefabAsset: {fileID: 0}
  m_GameObject: {fileID: 377552669}
  m_Enabled: 1
  m_EditorHideFlags: 0
  m_Script: {fileID: 11500000, guid: 0cd44c1031e13a943bb63640046fad76, type: 3}
  m_Name: 
  m_EditorClassIdentifier: 
  m_UiScaleMode: 1
  m_ReferencePixelsPerUnit: 100
  m_ScaleFactor: 1
  m_ReferenceResolution: {x: 1920, y: 1080}
  m_ScreenMatchMode: 0
  m_MatchWidthOrHeight: 0.5
  m_PhysicalUnit: 3
  m_FallbackScreenDPI: 96
  m_DefaultSpriteDPI: 96
  m_DynamicPixelsPerUnit: 1
  m_PresetInfoIsWorld: 0
--- !u!223 &377552672
Canvas:
  m_ObjectHideFlags: 0
  m_CorrespondingSourceObject: {fileID: 0}
  m_PrefabInstance: {fileID: 0}
  m_PrefabAsset: {fileID: 0}
  m_GameObject: {fileID: 377552669}
  m_Enabled: 1
  serializedVersion: 3
  m_RenderMode: 0
  m_Camera: {fileID: 0}
  m_PlaneDistance: 100
  m_PixelPerfect: 0
  m_ReceivesEvents: 1
  m_OverrideSorting: 0
  m_OverridePixelPerfect: 0
  m_SortingBucketNormalizedSize: 0
  m_AdditionalShaderChannelsFlag: 25
  m_SortingLayerID: 0
  m_SortingOrder: 0
  m_TargetDisplay: 0
--- !u!224 &377552673
RectTransform:
  m_ObjectHideFlags: 0
  m_CorrespondingSourceObject: {fileID: 0}
  m_PrefabInstance: {fileID: 0}
  m_PrefabAsset: {fileID: 0}
  m_GameObject: {fileID: 377552669}
  m_LocalRotation: {x: 0, y: 0, z: 0, w: 1}
  m_LocalPosition: {x: 0, y: 0, z: 0}
  m_LocalScale: {x: 0, y: 0, z: 0}
  m_ConstrainProportionsScale: 0
  m_Children:
  - {fileID: 91339427}
  - {fileID: 583540586}
  m_Father: {fileID: 0}
  m_RootOrder: 7
  m_LocalEulerAnglesHint: {x: 0, y: 0, z: 0}
  m_AnchorMin: {x: 0, y: 0}
  m_AnchorMax: {x: 0, y: 0}
  m_AnchoredPosition: {x: 0, y: 0}
  m_SizeDelta: {x: 0, y: 0}
  m_Pivot: {x: 0, y: 0}
--- !u!1 &519420028
GameObject:
  m_ObjectHideFlags: 0
  m_CorrespondingSourceObject: {fileID: 0}
  m_PrefabInstance: {fileID: 0}
  m_PrefabAsset: {fileID: 0}
  serializedVersion: 6
  m_Component:
  - component: {fileID: 519420032}
  - component: {fileID: 519420031}
  - component: {fileID: 519420029}
  m_Layer: 0
  m_Name: Main Camera
  m_TagString: MainCamera
  m_Icon: {fileID: 0}
  m_NavMeshLayer: 0
  m_StaticEditorFlags: 0
  m_IsActive: 1
--- !u!81 &519420029
AudioListener:
  m_ObjectHideFlags: 0
  m_CorrespondingSourceObject: {fileID: 0}
  m_PrefabInstance: {fileID: 0}
  m_PrefabAsset: {fileID: 0}
  m_GameObject: {fileID: 519420028}
  m_Enabled: 1
--- !u!20 &519420031
Camera:
  m_ObjectHideFlags: 0
  m_CorrespondingSourceObject: {fileID: 0}
  m_PrefabInstance: {fileID: 0}
  m_PrefabAsset: {fileID: 0}
  m_GameObject: {fileID: 519420028}
  m_Enabled: 1
  serializedVersion: 2
  m_ClearFlags: 2
  m_BackGroundColor: {r: 0, g: 0, b: 0, a: 0}
  m_projectionMatrixMode: 1
  m_GateFitMode: 2
  m_FOVAxisMode: 0
  m_SensorSize: {x: 36, y: 24}
  m_LensShift: {x: 0, y: 0}
  m_FocalLength: 50
  m_NormalizedViewPortRect:
    serializedVersion: 2
    x: 0
    y: 0
    width: 1
    height: 1
  near clip plane: 0.3
  far clip plane: 1000
  field of view: 60
  orthographic: 1
  orthographic size: 5
  m_Depth: -1
  m_CullingMask:
    serializedVersion: 2
    m_Bits: 2147483647
  m_RenderingPath: -1
  m_TargetTexture: {fileID: 0}
  m_TargetDisplay: 0
  m_TargetEye: 0
  m_HDR: 1
  m_AllowMSAA: 0
  m_AllowDynamicResolution: 0
  m_ForceIntoRT: 0
  m_OcclusionCulling: 0
  m_StereoConvergence: 10
  m_StereoSeparation: 0.022
--- !u!4 &519420032
Transform:
  m_ObjectHideFlags: 0
  m_CorrespondingSourceObject: {fileID: 0}
  m_PrefabInstance: {fileID: 0}
  m_PrefabAsset: {fileID: 0}
  m_GameObject: {fileID: 519420028}
  m_LocalRotation: {x: 0, y: 0, z: 0, w: 1}
  m_LocalPosition: {x: 0, y: 0, z: -10}
  m_LocalScale: {x: 1, y: 1, z: 1}
  m_ConstrainProportionsScale: 0
  m_Children: []
  m_Father: {fileID: 0}
  m_RootOrder: 0
  m_LocalEulerAnglesHint: {x: 0, y: 0, z: 0}
--- !u!224 &583540586 stripped
RectTransform:
  m_CorrespondingSourceObject: {fileID: 1620962199023362979, guid: f784dc5257efb50489576cdee26a2a6a, type: 3}
  m_PrefabInstance: {fileID: 1620962198465002697}
  m_PrefabAsset: {fileID: 0}
--- !u!114 &799337501 stripped
MonoBehaviour:
  m_CorrespondingSourceObject: {fileID: 3154350541906914969, guid: a66ca236cd9063240a56878071ff39ef, type: 3}
  m_PrefabInstance: {fileID: 3154350541732872618}
  m_PrefabAsset: {fileID: 0}
  m_GameObject: {fileID: 0}
  m_Enabled: 1
  m_EditorHideFlags: 0
  m_Script: {fileID: 11500000, guid: 7e2e28aa19e8f1c448671a9cc5c2a0cc, type: 3}
  m_Name: 
  m_EditorClassIdentifier: 
--- !u!114 &928123115 stripped
MonoBehaviour:
  m_CorrespondingSourceObject: {fileID: 118042203700587541, guid: 6bf100a9fca11ed49a58bc74d0c45ed9, type: 3}
  m_PrefabInstance: {fileID: 118042204492129534}
  m_PrefabAsset: {fileID: 0}
  m_GameObject: {fileID: 0}
  m_Enabled: 1
  m_EditorHideFlags: 0
  m_Script: {fileID: 11500000, guid: 3fd979bda0e04d5991e70154aa55c47f, type: 3}
  m_Name: 
  m_EditorClassIdentifier: 
--- !u!1 &1019802896
GameObject:
  m_ObjectHideFlags: 0
  m_CorrespondingSourceObject: {fileID: 0}
  m_PrefabInstance: {fileID: 0}
  m_PrefabAsset: {fileID: 0}
  serializedVersion: 6
  m_Component:
  - component: {fileID: 1019802899}
  - component: {fileID: 1019802898}
  - component: {fileID: 1019802900}
  m_Layer: 0
  m_Name: EventSystem
  m_TagString: Untagged
  m_Icon: {fileID: 0}
  m_NavMeshLayer: 0
  m_StaticEditorFlags: 0
  m_IsActive: 1
--- !u!114 &1019802898
MonoBehaviour:
  m_ObjectHideFlags: 0
  m_CorrespondingSourceObject: {fileID: 0}
  m_PrefabInstance: {fileID: 0}
  m_PrefabAsset: {fileID: 0}
  m_GameObject: {fileID: 1019802896}
  m_Enabled: 1
  m_EditorHideFlags: 0
  m_Script: {fileID: 11500000, guid: 76c392e42b5098c458856cdf6ecaaaa1, type: 3}
  m_Name: 
  m_EditorClassIdentifier: 
  m_FirstSelected: {fileID: 0}
  m_sendNavigationEvents: 1
  m_DragThreshold: 10
--- !u!4 &1019802899
Transform:
  m_ObjectHideFlags: 0
  m_CorrespondingSourceObject: {fileID: 0}
  m_PrefabInstance: {fileID: 0}
  m_PrefabAsset: {fileID: 0}
  m_GameObject: {fileID: 1019802896}
  m_LocalRotation: {x: 0, y: 0, z: 0, w: 1}
  m_LocalPosition: {x: 0, y: 0, z: 0}
  m_LocalScale: {x: 1, y: 1, z: 1}
  m_ConstrainProportionsScale: 0
  m_Children: []
  m_Father: {fileID: 0}
  m_RootOrder: 11
  m_LocalEulerAnglesHint: {x: 0, y: 0, z: 0}
--- !u!114 &1019802900
MonoBehaviour:
  m_ObjectHideFlags: 0
  m_CorrespondingSourceObject: {fileID: 0}
  m_PrefabInstance: {fileID: 0}
  m_PrefabAsset: {fileID: 0}
  m_GameObject: {fileID: 1019802896}
  m_Enabled: 1
  m_EditorHideFlags: 0
  m_Script: {fileID: 11500000, guid: 01614664b831546d2ae94a42149d80ac, type: 3}
  m_Name: 
  m_EditorClassIdentifier: 
  m_SendPointerHoverToParent: 1
  m_MoveRepeatDelay: 0.5
  m_MoveRepeatRate: 0.1
  m_XRTrackingOrigin: {fileID: 0}
  m_ActionsAsset: {fileID: -944628639613478452, guid: ca9f5fa95ffab41fb9a615ab714db018, type: 3}
  m_PointAction: {fileID: -1654692200621890270, guid: ca9f5fa95ffab41fb9a615ab714db018, type: 3}
  m_MoveAction: {fileID: -8784545083839296357, guid: ca9f5fa95ffab41fb9a615ab714db018, type: 3}
  m_SubmitAction: {fileID: 392368643174621059, guid: ca9f5fa95ffab41fb9a615ab714db018, type: 3}
  m_CancelAction: {fileID: 7727032971491509709, guid: ca9f5fa95ffab41fb9a615ab714db018, type: 3}
  m_LeftClickAction: {fileID: 3001919216989983466, guid: ca9f5fa95ffab41fb9a615ab714db018, type: 3}
  m_MiddleClickAction: {fileID: -2185481485913320682, guid: ca9f5fa95ffab41fb9a615ab714db018, type: 3}
  m_RightClickAction: {fileID: -4090225696740746782, guid: ca9f5fa95ffab41fb9a615ab714db018, type: 3}
  m_ScrollWheelAction: {fileID: 6240969308177333660, guid: ca9f5fa95ffab41fb9a615ab714db018, type: 3}
  m_TrackedDevicePositionAction: {fileID: 6564999863303420839, guid: ca9f5fa95ffab41fb9a615ab714db018, type: 3}
  m_TrackedDeviceOrientationAction: {fileID: 7970375526676320489, guid: ca9f5fa95ffab41fb9a615ab714db018, type: 3}
  m_DeselectOnBackgroundClick: 1
  m_PointerBehavior: 0
  m_CursorLockBehavior: 0
--- !u!1 &1543566801
GameObject:
  m_ObjectHideFlags: 0
  m_CorrespondingSourceObject: {fileID: 0}
  m_PrefabInstance: {fileID: 0}
  m_PrefabAsset: {fileID: 0}
  serializedVersion: 6
  m_Component:
  - component: {fileID: 1543566802}
  m_Layer: 0
  m_Name: ------------
  m_TagString: Untagged
  m_Icon: {fileID: 0}
  m_NavMeshLayer: 0
  m_StaticEditorFlags: 0
  m_IsActive: 1
--- !u!4 &1543566802
Transform:
  m_ObjectHideFlags: 0
  m_CorrespondingSourceObject: {fileID: 0}
  m_PrefabInstance: {fileID: 0}
  m_PrefabAsset: {fileID: 0}
  m_GameObject: {fileID: 1543566801}
  m_LocalRotation: {x: 0, y: 0, z: 0, w: 1}
  m_LocalPosition: {x: 0, y: 0, z: 0}
  m_LocalScale: {x: 1, y: 1, z: 1}
  m_ConstrainProportionsScale: 0
  m_Children: []
  m_Father: {fileID: 0}
  m_RootOrder: 8
  m_LocalEulerAnglesHint: {x: 0, y: 0, z: 0}
--- !u!114 &1582271929 stripped
MonoBehaviour:
  m_CorrespondingSourceObject: {fileID: 8403790400724033277, guid: 4597ae3f4e369e04a8adbac0a0dd440a, type: 3}
  m_PrefabInstance: {fileID: 8403790402296075076}
  m_PrefabAsset: {fileID: 0}
  m_GameObject: {fileID: 0}
  m_Enabled: 1
  m_EditorHideFlags: 0
  m_Script: {fileID: 11500000, guid: 4f92f4f8df044e239349e8c207e558e0, type: 3}
  m_Name: 
  m_EditorClassIdentifier: 
--- !u!114 &1785284953 stripped
MonoBehaviour:
  m_CorrespondingSourceObject: {fileID: 1760362014432659896, guid: 68447598a7d2177428d37419548aa41b, type: 3}
  m_PrefabInstance: {fileID: 1760362012920037601}
  m_PrefabAsset: {fileID: 0}
  m_GameObject: {fileID: 0}
  m_Enabled: 1
  m_EditorHideFlags: 0
  m_Script: {fileID: 11500000, guid: 363970eca3bb43578f2409b31b886f3f, type: 3}
  m_Name: 
  m_EditorClassIdentifier: 
--- !u!1001 &118042204492129534
PrefabInstance:
  m_ObjectHideFlags: 0
  serializedVersion: 2
  m_Modification:
    m_TransformParent: {fileID: 0}
    m_Modifications:
    - target: {fileID: 118042203700587538, guid: 6bf100a9fca11ed49a58bc74d0c45ed9, type: 3}
      propertyPath: m_RootOrder
      value: 2
      objectReference: {fileID: 0}
    - target: {fileID: 118042203700587538, guid: 6bf100a9fca11ed49a58bc74d0c45ed9, type: 3}
      propertyPath: m_LocalPosition.x
      value: 19.74
      objectReference: {fileID: 0}
    - target: {fileID: 118042203700587538, guid: 6bf100a9fca11ed49a58bc74d0c45ed9, type: 3}
      propertyPath: m_LocalPosition.y
      value: 0
      objectReference: {fileID: 0}
    - target: {fileID: 118042203700587538, guid: 6bf100a9fca11ed49a58bc74d0c45ed9, type: 3}
      propertyPath: m_LocalPosition.z
      value: 0
      objectReference: {fileID: 0}
    - target: {fileID: 118042203700587538, guid: 6bf100a9fca11ed49a58bc74d0c45ed9, type: 3}
      propertyPath: m_LocalRotation.w
      value: 1
      objectReference: {fileID: 0}
    - target: {fileID: 118042203700587538, guid: 6bf100a9fca11ed49a58bc74d0c45ed9, type: 3}
      propertyPath: m_LocalRotation.x
      value: 0
      objectReference: {fileID: 0}
    - target: {fileID: 118042203700587538, guid: 6bf100a9fca11ed49a58bc74d0c45ed9, type: 3}
      propertyPath: m_LocalRotation.y
      value: 0
      objectReference: {fileID: 0}
    - target: {fileID: 118042203700587538, guid: 6bf100a9fca11ed49a58bc74d0c45ed9, type: 3}
      propertyPath: m_LocalRotation.z
      value: 0
      objectReference: {fileID: 0}
    - target: {fileID: 118042203700587538, guid: 6bf100a9fca11ed49a58bc74d0c45ed9, type: 3}
      propertyPath: m_LocalEulerAnglesHint.x
      value: 0
      objectReference: {fileID: 0}
    - target: {fileID: 118042203700587538, guid: 6bf100a9fca11ed49a58bc74d0c45ed9, type: 3}
      propertyPath: m_LocalEulerAnglesHint.y
      value: 0
      objectReference: {fileID: 0}
    - target: {fileID: 118042203700587538, guid: 6bf100a9fca11ed49a58bc74d0c45ed9, type: 3}
      propertyPath: m_LocalEulerAnglesHint.z
      value: 0
      objectReference: {fileID: 0}
    - target: {fileID: 118042203700587540, guid: 6bf100a9fca11ed49a58bc74d0c45ed9, type: 3}
      propertyPath: m_Name
      value: Spawner
      objectReference: {fileID: 0}
    - target: {fileID: 118042203700587541, guid: 6bf100a9fca11ed49a58bc74d0c45ed9, type: 3}
      propertyPath: seed
      value: 1.5
      objectReference: {fileID: 0}
    - target: {fileID: 118042203700587541, guid: 6bf100a9fca11ed49a58bc74d0c45ed9, type: 3}
      propertyPath: bonusTimeStep
      value: 5
      objectReference: {fileID: 0}
    - target: {fileID: 118042203700587541, guid: 6bf100a9fca11ed49a58bc74d0c45ed9, type: 3}
      propertyPath: obstacleTimeStep
      value: 2.5
      objectReference: {fileID: 0}
    m_RemovedComponents: []
  m_SourcePrefab: {fileID: 100100000, guid: 6bf100a9fca11ed49a58bc74d0c45ed9, type: 3}
--- !u!1001 &1620962198465002697
PrefabInstance:
  m_ObjectHideFlags: 0
  serializedVersion: 2
  m_Modification:
    m_TransformParent: {fileID: 377552673}
    m_Modifications:
    - target: {fileID: 1620962199023362976, guid: f784dc5257efb50489576cdee26a2a6a, type: 3}
      propertyPath: m_Name
      value: Tip Panel
      objectReference: {fileID: 0}
    - target: {fileID: 1620962199023362979, guid: f784dc5257efb50489576cdee26a2a6a, type: 3}
      propertyPath: m_Pivot.x
      value: 0.5
      objectReference: {fileID: 0}
    - target: {fileID: 1620962199023362979, guid: f784dc5257efb50489576cdee26a2a6a, type: 3}
      propertyPath: m_Pivot.y
      value: 0.5
      objectReference: {fileID: 0}
    - target: {fileID: 1620962199023362979, guid: f784dc5257efb50489576cdee26a2a6a, type: 3}
      propertyPath: m_RootOrder
      value: 1
      objectReference: {fileID: 0}
    - target: {fileID: 1620962199023362979, guid: f784dc5257efb50489576cdee26a2a6a, type: 3}
      propertyPath: m_AnchorMax.x
      value: 1
      objectReference: {fileID: 0}
    - target: {fileID: 1620962199023362979, guid: f784dc5257efb50489576cdee26a2a6a, type: 3}
      propertyPath: m_AnchorMax.y
      value: 1
      objectReference: {fileID: 0}
    - target: {fileID: 1620962199023362979, guid: f784dc5257efb50489576cdee26a2a6a, type: 3}
      propertyPath: m_AnchorMin.x
      value: 0
      objectReference: {fileID: 0}
    - target: {fileID: 1620962199023362979, guid: f784dc5257efb50489576cdee26a2a6a, type: 3}
      propertyPath: m_AnchorMin.y
      value: 0
      objectReference: {fileID: 0}
    - target: {fileID: 1620962199023362979, guid: f784dc5257efb50489576cdee26a2a6a, type: 3}
      propertyPath: m_SizeDelta.x
      value: 0
      objectReference: {fileID: 0}
    - target: {fileID: 1620962199023362979, guid: f784dc5257efb50489576cdee26a2a6a, type: 3}
      propertyPath: m_SizeDelta.y
      value: 0
      objectReference: {fileID: 0}
    - target: {fileID: 1620962199023362979, guid: f784dc5257efb50489576cdee26a2a6a, type: 3}
      propertyPath: m_LocalPosition.x
      value: 0
      objectReference: {fileID: 0}
    - target: {fileID: 1620962199023362979, guid: f784dc5257efb50489576cdee26a2a6a, type: 3}
      propertyPath: m_LocalPosition.y
      value: 0
      objectReference: {fileID: 0}
    - target: {fileID: 1620962199023362979, guid: f784dc5257efb50489576cdee26a2a6a, type: 3}
      propertyPath: m_LocalPosition.z
      value: 0
      objectReference: {fileID: 0}
    - target: {fileID: 1620962199023362979, guid: f784dc5257efb50489576cdee26a2a6a, type: 3}
      propertyPath: m_LocalRotation.w
      value: 1
      objectReference: {fileID: 0}
    - target: {fileID: 1620962199023362979, guid: f784dc5257efb50489576cdee26a2a6a, type: 3}
      propertyPath: m_LocalRotation.x
      value: 0
      objectReference: {fileID: 0}
    - target: {fileID: 1620962199023362979, guid: f784dc5257efb50489576cdee26a2a6a, type: 3}
      propertyPath: m_LocalRotation.y
      value: 0
      objectReference: {fileID: 0}
    - target: {fileID: 1620962199023362979, guid: f784dc5257efb50489576cdee26a2a6a, type: 3}
      propertyPath: m_LocalRotation.z
      value: 0
      objectReference: {fileID: 0}
    - target: {fileID: 1620962199023362979, guid: f784dc5257efb50489576cdee26a2a6a, type: 3}
      propertyPath: m_AnchoredPosition.x
      value: 0
      objectReference: {fileID: 0}
    - target: {fileID: 1620962199023362979, guid: f784dc5257efb50489576cdee26a2a6a, type: 3}
      propertyPath: m_AnchoredPosition.y
      value: 0
      objectReference: {fileID: 0}
    - target: {fileID: 1620962199023362979, guid: f784dc5257efb50489576cdee26a2a6a, type: 3}
      propertyPath: m_LocalEulerAnglesHint.x
      value: 0
      objectReference: {fileID: 0}
    - target: {fileID: 1620962199023362979, guid: f784dc5257efb50489576cdee26a2a6a, type: 3}
      propertyPath: m_LocalEulerAnglesHint.y
      value: 0
      objectReference: {fileID: 0}
    - target: {fileID: 1620962199023362979, guid: f784dc5257efb50489576cdee26a2a6a, type: 3}
      propertyPath: m_LocalEulerAnglesHint.z
      value: 0
      objectReference: {fileID: 0}
    - target: {fileID: 9040372234366178967, guid: f784dc5257efb50489576cdee26a2a6a, type: 3}
      propertyPath: m_Alpha
      value: 1
      objectReference: {fileID: 0}
    m_RemovedComponents: []
  m_SourcePrefab: {fileID: 100100000, guid: f784dc5257efb50489576cdee26a2a6a, type: 3}
--- !u!1001 &1760362012920037601
PrefabInstance:
  m_ObjectHideFlags: 0
  serializedVersion: 2
  m_Modification:
    m_TransformParent: {fileID: 0}
    m_Modifications:
    - target: {fileID: 1760362014432659896, guid: 68447598a7d2177428d37419548aa41b, type: 3}
      propertyPath: movementSpeed
      value: 0.1
      objectReference: {fileID: 0}
    - target: {fileID: 1760362014432659897, guid: 68447598a7d2177428d37419548aa41b, type: 3}
      propertyPath: m_Name
      value: BonusPool
      objectReference: {fileID: 0}
    - target: {fileID: 1760362014432659899, guid: 68447598a7d2177428d37419548aa41b, type: 3}
      propertyPath: m_RootOrder
      value: 3
      objectReference: {fileID: 0}
    - target: {fileID: 1760362014432659899, guid: 68447598a7d2177428d37419548aa41b, type: 3}
      propertyPath: m_LocalPosition.x
      value: 10
      objectReference: {fileID: 0}
    - target: {fileID: 1760362014432659899, guid: 68447598a7d2177428d37419548aa41b, type: 3}
      propertyPath: m_LocalPosition.y
      value: 0
      objectReference: {fileID: 0}
    - target: {fileID: 1760362014432659899, guid: 68447598a7d2177428d37419548aa41b, type: 3}
      propertyPath: m_LocalPosition.z
      value: 0
      objectReference: {fileID: 0}
    - target: {fileID: 1760362014432659899, guid: 68447598a7d2177428d37419548aa41b, type: 3}
      propertyPath: m_LocalRotation.w
      value: 1
      objectReference: {fileID: 0}
    - target: {fileID: 1760362014432659899, guid: 68447598a7d2177428d37419548aa41b, type: 3}
      propertyPath: m_LocalRotation.x
      value: 0
      objectReference: {fileID: 0}
    - target: {fileID: 1760362014432659899, guid: 68447598a7d2177428d37419548aa41b, type: 3}
      propertyPath: m_LocalRotation.y
      value: 0
      objectReference: {fileID: 0}
    - target: {fileID: 1760362014432659899, guid: 68447598a7d2177428d37419548aa41b, type: 3}
      propertyPath: m_LocalRotation.z
      value: 0
      objectReference: {fileID: 0}
    - target: {fileID: 1760362014432659899, guid: 68447598a7d2177428d37419548aa41b, type: 3}
      propertyPath: m_LocalEulerAnglesHint.x
      value: 0
      objectReference: {fileID: 0}
    - target: {fileID: 1760362014432659899, guid: 68447598a7d2177428d37419548aa41b, type: 3}
      propertyPath: m_LocalEulerAnglesHint.y
      value: 0
      objectReference: {fileID: 0}
    - target: {fileID: 1760362014432659899, guid: 68447598a7d2177428d37419548aa41b, type: 3}
      propertyPath: m_LocalEulerAnglesHint.z
      value: 0
      objectReference: {fileID: 0}
    m_RemovedComponents: []
  m_SourcePrefab: {fileID: 100100000, guid: 68447598a7d2177428d37419548aa41b, type: 3}
--- !u!1001 &2075646719960599675
PrefabInstance:
  m_ObjectHideFlags: 0
  serializedVersion: 2
  m_Modification:
    m_TransformParent: {fileID: 0}
    m_Modifications:
    - target: {fileID: 2075646719221338368, guid: e178274ae3668e848a6b051a83a494a9, type: 3}
      propertyPath: m_Name
      value: SceneContext
      objectReference: {fileID: 0}
    - target: {fileID: 2075646719221338373, guid: e178274ae3668e848a6b051a83a494a9, type: 3}
      propertyPath: m_RootOrder
      value: 10
      objectReference: {fileID: 0}
    - target: {fileID: 2075646719221338373, guid: e178274ae3668e848a6b051a83a494a9, type: 3}
      propertyPath: m_LocalPosition.x
      value: 0
      objectReference: {fileID: 0}
    - target: {fileID: 2075646719221338373, guid: e178274ae3668e848a6b051a83a494a9, type: 3}
      propertyPath: m_LocalPosition.y
      value: 0
      objectReference: {fileID: 0}
    - target: {fileID: 2075646719221338373, guid: e178274ae3668e848a6b051a83a494a9, type: 3}
      propertyPath: m_LocalPosition.z
      value: 0
      objectReference: {fileID: 0}
    - target: {fileID: 2075646719221338373, guid: e178274ae3668e848a6b051a83a494a9, type: 3}
      propertyPath: m_LocalRotation.w
      value: 1
      objectReference: {fileID: 0}
    - target: {fileID: 2075646719221338373, guid: e178274ae3668e848a6b051a83a494a9, type: 3}
      propertyPath: m_LocalRotation.x
      value: 0
      objectReference: {fileID: 0}
    - target: {fileID: 2075646719221338373, guid: e178274ae3668e848a6b051a83a494a9, type: 3}
      propertyPath: m_LocalRotation.y
      value: 0
      objectReference: {fileID: 0}
    - target: {fileID: 2075646719221338373, guid: e178274ae3668e848a6b051a83a494a9, type: 3}
      propertyPath: m_LocalRotation.z
      value: 0
      objectReference: {fileID: 0}
    - target: {fileID: 2075646719221338373, guid: e178274ae3668e848a6b051a83a494a9, type: 3}
      propertyPath: m_LocalEulerAnglesHint.x
      value: 0
      objectReference: {fileID: 0}
    - target: {fileID: 2075646719221338373, guid: e178274ae3668e848a6b051a83a494a9, type: 3}
      propertyPath: m_LocalEulerAnglesHint.y
      value: 0
      objectReference: {fileID: 0}
    - target: {fileID: 2075646719221338373, guid: e178274ae3668e848a6b051a83a494a9, type: 3}
      propertyPath: m_LocalEulerAnglesHint.z
      value: 0
      objectReference: {fileID: 0}
    - target: {fileID: 2075646719221338375, guid: e178274ae3668e848a6b051a83a494a9, type: 3}
      propertyPath: spawner
      value: 
      objectReference: {fileID: 928123115}
    - target: {fileID: 2075646719221338375, guid: e178274ae3668e848a6b051a83a494a9, type: 3}
      propertyPath: bonusPool
      value: 
      objectReference: {fileID: 1785284953}
    - target: {fileID: 2075646719221338375, guid: e178274ae3668e848a6b051a83a494a9, type: 3}
      propertyPath: character
      value: 
      objectReference: {fileID: 799337501}
    - target: {fileID: 2075646719221338375, guid: e178274ae3668e848a6b051a83a494a9, type: 3}
      propertyPath: obstaclePool
      value: 
      objectReference: {fileID: 1582271929}
    - target: {fileID: 2075646719221338375, guid: e178274ae3668e848a6b051a83a494a9, type: 3}
      propertyPath: characterMovement
      value: 
      objectReference: {fileID: 799337501}
    m_RemovedComponents: []
  m_SourcePrefab: {fileID: 100100000, guid: e178274ae3668e848a6b051a83a494a9, type: 3}
--- !u!1001 &2670489019150896004
PrefabInstance:
  m_ObjectHideFlags: 0
  serializedVersion: 2
  m_Modification:
    m_TransformParent: {fileID: 0}
    m_Modifications:
    - target: {fileID: 2670489019092201355, guid: f56b0fa696cd3fd4db85b0ded1e5a4f8, type: 3}
      propertyPath: m_Name
      value: Obstacle Border
      objectReference: {fileID: 0}
    - target: {fileID: 2670489019092201366, guid: f56b0fa696cd3fd4db85b0ded1e5a4f8, type: 3}
      propertyPath: m_RootOrder
      value: 6
      objectReference: {fileID: 0}
    - target: {fileID: 2670489019092201366, guid: f56b0fa696cd3fd4db85b0ded1e5a4f8, type: 3}
      propertyPath: m_LocalPosition.x
      value: -12.28
      objectReference: {fileID: 0}
    - target: {fileID: 2670489019092201366, guid: f56b0fa696cd3fd4db85b0ded1e5a4f8, type: 3}
      propertyPath: m_LocalPosition.y
      value: 0
      objectReference: {fileID: 0}
    - target: {fileID: 2670489019092201366, guid: f56b0fa696cd3fd4db85b0ded1e5a4f8, type: 3}
      propertyPath: m_LocalPosition.z
      value: 0
      objectReference: {fileID: 0}
    - target: {fileID: 2670489019092201366, guid: f56b0fa696cd3fd4db85b0ded1e5a4f8, type: 3}
      propertyPath: m_LocalRotation.w
      value: 1
      objectReference: {fileID: 0}
    - target: {fileID: 2670489019092201366, guid: f56b0fa696cd3fd4db85b0ded1e5a4f8, type: 3}
      propertyPath: m_LocalRotation.x
      value: 0
      objectReference: {fileID: 0}
    - target: {fileID: 2670489019092201366, guid: f56b0fa696cd3fd4db85b0ded1e5a4f8, type: 3}
      propertyPath: m_LocalRotation.y
      value: 0
      objectReference: {fileID: 0}
    - target: {fileID: 2670489019092201366, guid: f56b0fa696cd3fd4db85b0ded1e5a4f8, type: 3}
      propertyPath: m_LocalRotation.z
      value: 0
      objectReference: {fileID: 0}
    - target: {fileID: 2670489019092201366, guid: f56b0fa696cd3fd4db85b0ded1e5a4f8, type: 3}
      propertyPath: m_LocalEulerAnglesHint.x
      value: 0
      objectReference: {fileID: 0}
    - target: {fileID: 2670489019092201366, guid: f56b0fa696cd3fd4db85b0ded1e5a4f8, type: 3}
      propertyPath: m_LocalEulerAnglesHint.y
      value: 0
      objectReference: {fileID: 0}
    - target: {fileID: 2670489019092201366, guid: f56b0fa696cd3fd4db85b0ded1e5a4f8, type: 3}
      propertyPath: m_LocalEulerAnglesHint.z
      value: 0
      objectReference: {fileID: 0}
    m_RemovedComponents: []
  m_SourcePrefab: {fileID: 100100000, guid: f56b0fa696cd3fd4db85b0ded1e5a4f8, type: 3}
--- !u!1001 &3154350541732872618
PrefabInstance:
  m_ObjectHideFlags: 0
  serializedVersion: 2
  m_Modification:
    m_TransformParent: {fileID: 0}
    m_Modifications:
    - target: {fileID: 3154350541906914968, guid: a66ca236cd9063240a56878071ff39ef, type: 3}
      propertyPath: m_Name
      value: Character
      objectReference: {fileID: 0}
    - target: {fileID: 3154350541906914969, guid: a66ca236cd9063240a56878071ff39ef, type: 3}
      propertyPath: upForce
      value: 0.7
      objectReference: {fileID: 0}
    - target: {fileID: 3154350541906914975, guid: a66ca236cd9063240a56878071ff39ef, type: 3}
      propertyPath: m_RootOrder
      value: 1
      objectReference: {fileID: 0}
    - target: {fileID: 3154350541906914975, guid: a66ca236cd9063240a56878071ff39ef, type: 3}
      propertyPath: m_LocalPosition.x
      value: -5.46
      objectReference: {fileID: 0}
    - target: {fileID: 3154350541906914975, guid: a66ca236cd9063240a56878071ff39ef, type: 3}
      propertyPath: m_LocalPosition.y
      value: 0
      objectReference: {fileID: 0}
    - target: {fileID: 3154350541906914975, guid: a66ca236cd9063240a56878071ff39ef, type: 3}
      propertyPath: m_LocalPosition.z
      value: 0
      objectReference: {fileID: 0}
    - target: {fileID: 3154350541906914975, guid: a66ca236cd9063240a56878071ff39ef, type: 3}
      propertyPath: m_LocalRotation.w
      value: 1
      objectReference: {fileID: 0}
    - target: {fileID: 3154350541906914975, guid: a66ca236cd9063240a56878071ff39ef, type: 3}
      propertyPath: m_LocalRotation.x
      value: 0
      objectReference: {fileID: 0}
    - target: {fileID: 3154350541906914975, guid: a66ca236cd9063240a56878071ff39ef, type: 3}
      propertyPath: m_LocalRotation.y
      value: 0
      objectReference: {fileID: 0}
    - target: {fileID: 3154350541906914975, guid: a66ca236cd9063240a56878071ff39ef, type: 3}
      propertyPath: m_LocalRotation.z
      value: 0
      objectReference: {fileID: 0}
    - target: {fileID: 3154350541906914975, guid: a66ca236cd9063240a56878071ff39ef, type: 3}
      propertyPath: m_LocalEulerAnglesHint.x
      value: 0
      objectReference: {fileID: 0}
    - target: {fileID: 3154350541906914975, guid: a66ca236cd9063240a56878071ff39ef, type: 3}
      propertyPath: m_LocalEulerAnglesHint.y
      value: 0
      objectReference: {fileID: 0}
    - target: {fileID: 3154350541906914975, guid: a66ca236cd9063240a56878071ff39ef, type: 3}
      propertyPath: m_LocalEulerAnglesHint.z
      value: 0
      objectReference: {fileID: 0}
    m_RemovedComponents: []
  m_SourcePrefab: {fileID: 100100000, guid: a66ca236cd9063240a56878071ff39ef, type: 3}
--- !u!1001 &3491404956334222276
PrefabInstance:
  m_ObjectHideFlags: 0
  serializedVersion: 2
  m_Modification:
    m_TransformParent: {fileID: 0}
    m_Modifications:
    - target: {fileID: 1962456837282197804, guid: 860eb21bbcc9f4d4fafc4af30b70eb20, type: 3}
      propertyPath: m_RootOrder
      value: 5
      objectReference: {fileID: 0}
    - target: {fileID: 1962456837282197804, guid: 860eb21bbcc9f4d4fafc4af30b70eb20, type: 3}
      propertyPath: m_LocalPosition.x
      value: 0
      objectReference: {fileID: 0}
    - target: {fileID: 1962456837282197804, guid: 860eb21bbcc9f4d4fafc4af30b70eb20, type: 3}
      propertyPath: m_LocalPosition.y
      value: 0
      objectReference: {fileID: 0}
    - target: {fileID: 1962456837282197804, guid: 860eb21bbcc9f4d4fafc4af30b70eb20, type: 3}
      propertyPath: m_LocalPosition.z
      value: 0
      objectReference: {fileID: 0}
    - target: {fileID: 1962456837282197804, guid: 860eb21bbcc9f4d4fafc4af30b70eb20, type: 3}
      propertyPath: m_LocalRotation.w
      value: 1
      objectReference: {fileID: 0}
    - target: {fileID: 1962456837282197804, guid: 860eb21bbcc9f4d4fafc4af30b70eb20, type: 3}
      propertyPath: m_LocalRotation.x
      value: 0
      objectReference: {fileID: 0}
    - target: {fileID: 1962456837282197804, guid: 860eb21bbcc9f4d4fafc4af30b70eb20, type: 3}
      propertyPath: m_LocalRotation.y
      value: 0
      objectReference: {fileID: 0}
    - target: {fileID: 1962456837282197804, guid: 860eb21bbcc9f4d4fafc4af30b70eb20, type: 3}
      propertyPath: m_LocalRotation.z
      value: 0
      objectReference: {fileID: 0}
    - target: {fileID: 1962456837282197804, guid: 860eb21bbcc9f4d4fafc4af30b70eb20, type: 3}
      propertyPath: m_LocalEulerAnglesHint.x
      value: 0
      objectReference: {fileID: 0}
    - target: {fileID: 1962456837282197804, guid: 860eb21bbcc9f4d4fafc4af30b70eb20, type: 3}
      propertyPath: m_LocalEulerAnglesHint.y
      value: 0
      objectReference: {fileID: 0}
    - target: {fileID: 1962456837282197804, guid: 860eb21bbcc9f4d4fafc4af30b70eb20, type: 3}
      propertyPath: m_LocalEulerAnglesHint.z
      value: 0
      objectReference: {fileID: 0}
    - target: {fileID: 4081905341411470354, guid: 860eb21bbcc9f4d4fafc4af30b70eb20, type: 3}
      propertyPath: m_Name
      value: Borders
      objectReference: {fileID: 0}
    m_RemovedComponents: []
  m_SourcePrefab: {fileID: 100100000, guid: 860eb21bbcc9f4d4fafc4af30b70eb20, type: 3}
--- !u!1001 &5759775506456902231
PrefabInstance:
  m_ObjectHideFlags: 0
  serializedVersion: 2
  m_Modification:
    m_TransformParent: {fileID: 0}
    m_Modifications:
    - target: {fileID: 5759775505081892194, guid: ca138bd6760bedd4982046bb7a563cd8, type: 3}
      propertyPath: m_RootOrder
      value: 9
      objectReference: {fileID: 0}
    - target: {fileID: 5759775505081892194, guid: ca138bd6760bedd4982046bb7a563cd8, type: 3}
      propertyPath: m_LocalPosition.x
      value: 0
      objectReference: {fileID: 0}
    - target: {fileID: 5759775505081892194, guid: ca138bd6760bedd4982046bb7a563cd8, type: 3}
      propertyPath: m_LocalPosition.y
      value: 0
      objectReference: {fileID: 0}
    - target: {fileID: 5759775505081892194, guid: ca138bd6760bedd4982046bb7a563cd8, type: 3}
      propertyPath: m_LocalPosition.z
      value: 0
      objectReference: {fileID: 0}
    - target: {fileID: 5759775505081892194, guid: ca138bd6760bedd4982046bb7a563cd8, type: 3}
      propertyPath: m_LocalRotation.w
      value: 1
      objectReference: {fileID: 0}
    - target: {fileID: 5759775505081892194, guid: ca138bd6760bedd4982046bb7a563cd8, type: 3}
      propertyPath: m_LocalRotation.x
      value: 0
      objectReference: {fileID: 0}
    - target: {fileID: 5759775505081892194, guid: ca138bd6760bedd4982046bb7a563cd8, type: 3}
      propertyPath: m_LocalRotation.y
      value: 0
      objectReference: {fileID: 0}
    - target: {fileID: 5759775505081892194, guid: ca138bd6760bedd4982046bb7a563cd8, type: 3}
      propertyPath: m_LocalRotation.z
      value: 0
      objectReference: {fileID: 0}
    - target: {fileID: 5759775505081892194, guid: ca138bd6760bedd4982046bb7a563cd8, type: 3}
      propertyPath: m_LocalEulerAnglesHint.x
      value: 0
      objectReference: {fileID: 0}
    - target: {fileID: 5759775505081892194, guid: ca138bd6760bedd4982046bb7a563cd8, type: 3}
      propertyPath: m_LocalEulerAnglesHint.y
      value: 0
      objectReference: {fileID: 0}
    - target: {fileID: 5759775505081892194, guid: ca138bd6760bedd4982046bb7a563cd8, type: 3}
      propertyPath: m_LocalEulerAnglesHint.z
      value: 0
      objectReference: {fileID: 0}
    - target: {fileID: 5759775505081892196, guid: ca138bd6760bedd4982046bb7a563cd8, type: 3}
      propertyPath: m_Name
      value: Bootstrapper
      objectReference: {fileID: 0}
    m_RemovedComponents: []
  m_SourcePrefab: {fileID: 100100000, guid: ca138bd6760bedd4982046bb7a563cd8, type: 3}
--- !u!1001 &7366166440337573880
PrefabInstance:
  m_ObjectHideFlags: 0
  serializedVersion: 2
  m_Modification:
    m_TransformParent: {fileID: 377552673}
    m_Modifications:
    - target: {fileID: 7366166440422423898, guid: 9af34b7f964a0e846b0819f5711c3c28, type: 3}
      propertyPath: m_Name
      value: Score Panel
      objectReference: {fileID: 0}
    - target: {fileID: 7366166440422423899, guid: 9af34b7f964a0e846b0819f5711c3c28, type: 3}
      propertyPath: m_Pivot.x
      value: 0.5
      objectReference: {fileID: 0}
    - target: {fileID: 7366166440422423899, guid: 9af34b7f964a0e846b0819f5711c3c28, type: 3}
      propertyPath: m_Pivot.y
      value: 0.5
      objectReference: {fileID: 0}
    - target: {fileID: 7366166440422423899, guid: 9af34b7f964a0e846b0819f5711c3c28, type: 3}
      propertyPath: m_RootOrder
      value: 0
      objectReference: {fileID: 0}
    - target: {fileID: 7366166440422423899, guid: 9af34b7f964a0e846b0819f5711c3c28, type: 3}
      propertyPath: m_AnchorMax.x
      value: 1
      objectReference: {fileID: 0}
    - target: {fileID: 7366166440422423899, guid: 9af34b7f964a0e846b0819f5711c3c28, type: 3}
      propertyPath: m_AnchorMax.y
      value: 1
      objectReference: {fileID: 0}
    - target: {fileID: 7366166440422423899, guid: 9af34b7f964a0e846b0819f5711c3c28, type: 3}
      propertyPath: m_AnchorMin.x
      value: 0
      objectReference: {fileID: 0}
    - target: {fileID: 7366166440422423899, guid: 9af34b7f964a0e846b0819f5711c3c28, type: 3}
      propertyPath: m_AnchorMin.y
      value: 0
      objectReference: {fileID: 0}
    - target: {fileID: 7366166440422423899, guid: 9af34b7f964a0e846b0819f5711c3c28, type: 3}
      propertyPath: m_SizeDelta.x
      value: 0
      objectReference: {fileID: 0}
    - target: {fileID: 7366166440422423899, guid: 9af34b7f964a0e846b0819f5711c3c28, type: 3}
      propertyPath: m_SizeDelta.y
      value: 0
      objectReference: {fileID: 0}
    - target: {fileID: 7366166440422423899, guid: 9af34b7f964a0e846b0819f5711c3c28, type: 3}
      propertyPath: m_LocalPosition.x
      value: 0
      objectReference: {fileID: 0}
    - target: {fileID: 7366166440422423899, guid: 9af34b7f964a0e846b0819f5711c3c28, type: 3}
      propertyPath: m_LocalPosition.y
      value: 0
      objectReference: {fileID: 0}
    - target: {fileID: 7366166440422423899, guid: 9af34b7f964a0e846b0819f5711c3c28, type: 3}
      propertyPath: m_LocalPosition.z
      value: 0
      objectReference: {fileID: 0}
    - target: {fileID: 7366166440422423899, guid: 9af34b7f964a0e846b0819f5711c3c28, type: 3}
      propertyPath: m_LocalRotation.w
      value: 1
      objectReference: {fileID: 0}
    - target: {fileID: 7366166440422423899, guid: 9af34b7f964a0e846b0819f5711c3c28, type: 3}
      propertyPath: m_LocalRotation.x
      value: 0
      objectReference: {fileID: 0}
    - target: {fileID: 7366166440422423899, guid: 9af34b7f964a0e846b0819f5711c3c28, type: 3}
      propertyPath: m_LocalRotation.y
      value: 0
      objectReference: {fileID: 0}
    - target: {fileID: 7366166440422423899, guid: 9af34b7f964a0e846b0819f5711c3c28, type: 3}
      propertyPath: m_LocalRotation.z
      value: 0
      objectReference: {fileID: 0}
    - target: {fileID: 7366166440422423899, guid: 9af34b7f964a0e846b0819f5711c3c28, type: 3}
      propertyPath: m_AnchoredPosition.x
      value: 0
      objectReference: {fileID: 0}
    - target: {fileID: 7366166440422423899, guid: 9af34b7f964a0e846b0819f5711c3c28, type: 3}
      propertyPath: m_AnchoredPosition.y
      value: 0
      objectReference: {fileID: 0}
    - target: {fileID: 7366166440422423899, guid: 9af34b7f964a0e846b0819f5711c3c28, type: 3}
      propertyPath: m_LocalEulerAnglesHint.x
      value: 0
      objectReference: {fileID: 0}
    - target: {fileID: 7366166440422423899, guid: 9af34b7f964a0e846b0819f5711c3c28, type: 3}
      propertyPath: m_LocalEulerAnglesHint.y
      value: 0
      objectReference: {fileID: 0}
    - target: {fileID: 7366166440422423899, guid: 9af34b7f964a0e846b0819f5711c3c28, type: 3}
      propertyPath: m_LocalEulerAnglesHint.z
      value: 0
      objectReference: {fileID: 0}
    - target: {fileID: 7366166440518015689, guid: 9af34b7f964a0e846b0819f5711c3c28, type: 3}
      propertyPath: m_SizeDelta.x
      value: 0
      objectReference: {fileID: 0}
    - target: {fileID: 7366166440518015689, guid: 9af34b7f964a0e846b0819f5711c3c28, type: 3}
      propertyPath: m_AnchoredPosition.y
      value: -44.16
      objectReference: {fileID: 0}
    m_RemovedComponents: []
  m_SourcePrefab: {fileID: 100100000, guid: 9af34b7f964a0e846b0819f5711c3c28, type: 3}
--- !u!1001 &8403790402296075076
PrefabInstance:
  m_ObjectHideFlags: 0
  serializedVersion: 2
  m_Modification:
    m_TransformParent: {fileID: 0}
    m_Modifications:
    - target: {fileID: 8403790400724033276, guid: 4597ae3f4e369e04a8adbac0a0dd440a, type: 3}
      propertyPath: m_Name
      value: ObstaclePool
      objectReference: {fileID: 0}
    - target: {fileID: 8403790400724033277, guid: 4597ae3f4e369e04a8adbac0a0dd440a, type: 3}
      propertyPath: movementSpeed
      value: 0.1
      objectReference: {fileID: 0}
    - target: {fileID: 8403790400724033278, guid: 4597ae3f4e369e04a8adbac0a0dd440a, type: 3}
      propertyPath: m_RootOrder
      value: 4
      objectReference: {fileID: 0}
    - target: {fileID: 8403790400724033278, guid: 4597ae3f4e369e04a8adbac0a0dd440a, type: 3}
      propertyPath: m_LocalPosition.x
      value: 10
      objectReference: {fileID: 0}
    - target: {fileID: 8403790400724033278, guid: 4597ae3f4e369e04a8adbac0a0dd440a, type: 3}
      propertyPath: m_LocalPosition.y
      value: 0
      objectReference: {fileID: 0}
    - target: {fileID: 8403790400724033278, guid: 4597ae3f4e369e04a8adbac0a0dd440a, type: 3}
      propertyPath: m_LocalPosition.z
      value: 0
      objectReference: {fileID: 0}
    - target: {fileID: 8403790400724033278, guid: 4597ae3f4e369e04a8adbac0a0dd440a, type: 3}
      propertyPath: m_LocalRotation.w
      value: 1
      objectReference: {fileID: 0}
    - target: {fileID: 8403790400724033278, guid: 4597ae3f4e369e04a8adbac0a0dd440a, type: 3}
      propertyPath: m_LocalRotation.x
      value: 0
      objectReference: {fileID: 0}
    - target: {fileID: 8403790400724033278, guid: 4597ae3f4e369e04a8adbac0a0dd440a, type: 3}
      propertyPath: m_LocalRotation.y
      value: 0
      objectReference: {fileID: 0}
    - target: {fileID: 8403790400724033278, guid: 4597ae3f4e369e04a8adbac0a0dd440a, type: 3}
      propertyPath: m_LocalRotation.z
      value: 0
      objectReference: {fileID: 0}
    - target: {fileID: 8403790400724033278, guid: 4597ae3f4e369e04a8adbac0a0dd440a, type: 3}
      propertyPath: m_LocalEulerAnglesHint.x
      value: 0
      objectReference: {fileID: 0}
    - target: {fileID: 8403790400724033278, guid: 4597ae3f4e369e04a8adbac0a0dd440a, type: 3}
      propertyPath: m_LocalEulerAnglesHint.y
      value: 0
      objectReference: {fileID: 0}
    - target: {fileID: 8403790400724033278, guid: 4597ae3f4e369e04a8adbac0a0dd440a, type: 3}
      propertyPath: m_LocalEulerAnglesHint.z
      value: 0
      objectReference: {fileID: 0}
    m_RemovedComponents: []
  m_SourcePrefab: {fileID: 100100000, guid: 4597ae3f4e369e04a8adbac0a0dd440a, type: 3}
